<svg width="600" height="800" viewBox="0 0 600 800" fill="none" xmlns="http://www.w3.org/2000/svg">
<rect width="600" height="800" fill="url(#paint0_linear)"/>
<g filter="url(#filter0_di)">
<path fill-rule="evenodd" clip-rule="evenodd" d="M394.867 293.657L347.209 246L299.55 293.657L300.878 294.984C300.43 294.561 299.987 294.13 299.55 293.693L251.874 246.018L204.197 293.693L299.55 389.044L394.85 293.693C394.54 294.003 394.227 294.31 393.912 294.613L394.867 293.657ZM195.836 306.386C195.149 305.633 194.443 304.894 193.719 304.169L289.072 399.466L193.719 494.764L146.042 447.089L193.719 399.466C193.87 399.315 194.02 399.164 194.17 399.011L193.659 399.523L146 351.865L193.659 304.208L195.836 306.386ZM405.3 494.864L452.957 447.207L405.3 399.55L404.843 400.007C405.003 399.844 405.164 399.682 405.325 399.52L453.002 351.844L405.325 304.169L310.026 399.52L357.648 447.195L357.651 447.198L357.642 447.207L405.3 494.864ZM204.205 505.345L251.863 553.002L299.521 505.345L298.306 504.13C298.707 504.512 299.104 504.899 299.497 505.291L347.12 552.967L394.796 505.291L299.497 409.994L204.197 505.291C204.767 504.722 205.345 504.164 205.932 503.618L204.205 505.345Z" fill="white"/>
</g>
<defs>
<filter id="filter0_di" x="120" y="220" width="359.002" height="359.002" filterUnits="userSpaceOnUse" color-interpolation-filters="sRGB">
<feFlood flood-opacity="0" result="BackgroundImageFix"/>
<feColorMatrix in="SourceAlpha" type="matrix" values="0 0 0 0 0 0 0 0 0 0 0 0 0 0 0 0 0 0 127 0"/>
<feOffset/>
<feGaussianBlur stdDeviation="13"/>
<feColorMatrix type="matrix" values="0 0 0 0 0 0 0 0 0 0 0 0 0 0 0 0 0 0 0.25 0"/>
<feBlend mode="normal" in2="BackgroundImageFix" result="effect1_dropShadow"/>
<feBlend mode="normal" in="SourceGraphic" in2="effect1_dropShadow" result="shape"/>
<feColorMatrix in="SourceAlpha" type="matrix" values="0 0 0 0 0 0 0 0 0 0 0 0 0 0 0 0 0 0 127 0" result="hardAlpha"/>
<feOffset dx="3" dy="-10"/>
<feGaussianBlur stdDeviation="6.5"/>
<feComposite in2="hardAlpha" operator="arithmetic" k2="-1" k3="1"/>
<feColorMatrix type="matrix" values="0 0 0 0 0.0954341 0 0 0 0 0.887786 0 0 0 0 0.995833 0 0 0 0.4 0"/>
<feBlend mode="normal" in2="shape" result="effect2_innerShadow"/>
</filter>
<linearGradient id="paint0_linear" x1="300" y1="0" x2="300" y2="800" gradientUnits="userSpaceOnUse">
<stop stop-color="#89F7FE"/>
<stop offset="1" stop-color="#66A6FF" stop-opacity="0.72"/>
</linearGradient>
</defs>
</svg>
