<svg width="85" height="85" viewBox="0 0 85 85" fill="none" xmlns="http://www.w3.org/2000/svg">
<path d="M13.1953 16.116L0 29.3109L13.1953 42.5059L26.3905 29.3109L13.1953 16.116Z" fill="white"/>
<path d="M13.2122 16.1052C16.7103 19.6045 18.6755 24.3498 18.6755 29.2977C18.6755 34.2456 16.7103 38.991 13.2122 42.4903L0.0118999 55.6755L13.2122 68.8754L39.6127 42.4903L13.2122 16.1052Z" fill="white"/>
<path d="M71.7924 68.9039L84.9873 55.709L71.7924 42.5141L58.5972 55.709L71.7924 68.9039Z" fill="white"/>
<path d="M58.5992 55.705L71.7996 68.8902C68.3014 65.3909 66.3363 60.6456 66.3363 55.6976C66.3363 50.7498 68.3014 46.0044 71.7996 42.5051L85 29.3051L71.7996 16.1052L45.4138 42.5051L58.5992 55.705Z" fill="white"/>
<path d="M16.1154 71.8051L29.3106 85L42.5059 71.8051L29.3106 58.61L16.1154 71.8051Z" fill="white"/>
<path d="M16.1125 71.7903C19.6119 68.2923 24.3573 66.3271 29.3053 66.3271C34.2533 66.3271 38.9988 68.2923 42.4982 71.7903L55.6838 84.9905L68.884 71.7903L42.4982 45.4052L16.1125 71.7903Z" fill="white"/>
<path d="M68.9052 13.195L55.7099 0L42.5146 13.1949L55.7099 26.39L68.9052 13.195Z" fill="white"/>
<path d="M68.8988 13.2047C65.3994 16.7027 60.6539 18.6678 55.7059 18.6678C50.7578 18.6678 46.0125 16.7027 42.513 13.2047L29.3128 0.00465638L16.1125 13.2047L42.513 39.6046L68.8988 13.2047Z" fill="white"/>
</svg>
